id;matricule;user_id
1;green optimizing Gloves;2
2;interface Soap;2
3;Generic robust Fields;2
4;Alabama Wisconsin;1
5;empowering China foreground;1
6;forecast streamline Avon;2
7;Bike Fresh;2
8;Associate withdrawal Rial Omani;2
9;Technician;2
10;Borders Avon;1
